{
	"info": {
		"_postman_id": "1c42c227-c66f-41a5-9a04-90b3e7f6ac66",
		"name": "CAPSTONE 2",
		"schema": "https://schema.getpostman.com/json/collection/v2.1.0/collection.json",
		"_exporter_id": "24773554"
	},
	"item": [
		{
			"name": "REGISTER USER",
			"request": {
				"method": "POST",
				"header": [],
				"body": {
					"mode": "raw",
					"raw": "{\r\n    \"email\": \"DashingMorgana@gmail.com\",\r\n    \"password\": \"sushiii\"\r\n}",
					"options": {
						"raw": {
							"language": "json"
						}
					}
				},
				"url": {
					"raw": "localhost:8000/user/register",
					"host": [
						"localhost"
					],
					"port": "8000",
					"path": [
						"user",
						"register"
					]
				}
			},
			"response": []
		},
		{
			"name": "LOGIN USER",
			"request": {
				"method": "POST",
				"header": [],
				"body": {
					"mode": "raw",
					"raw": "{\r\n    \"email\": \"anonymogus@gmail.com\",\r\n    \"password\": \"everybodyLovesMe\"\r\n}",
					"options": {
						"raw": {
							"language": "json"
						}
					}
				},
				"url": {
					"raw": "localhost:8000/user/login",
					"host": [
						"localhost"
					],
					"port": "8000",
					"path": [
						"user",
						"login"
					]
				}
			},
			"response": []
		},
		{
			"name": "USER AUTHENTICATION",
			"request": {
				"auth": {
					"type": "bearer",
					"bearer": [
						{
							"key": "token",
							"value": "eyJhbGciOiJIUzI1NiIsInR5cCI6IkpXVCJ9.eyJpZCI6IjYzY2ViYjlkYzEzNWYxZWExMDlhZDQ3NCIsImVtYWlsIjoiYW5vbnltb2d1c0BnbWFpbC5jb20iLCJpc0FkbWluIjpmYWxzZSwiaWF0IjoxNjc0NDkzMjQ5fQ.hV2njH5xlxJ2MByVTh5Pu37uWjDbKSQSEwN4Oz0Edyg",
							"type": "string"
						}
					]
				},
				"method": "POST",
				"header": [],
				"body": {
					"mode": "raw",
					"raw": "{\r\n    \"id\": \"63cebb9dc135f1ea109ad474\"\r\n}",
					"options": {
						"raw": {
							"language": "json"
						}
					}
				},
				"url": {
					"raw": "localhost:8000/user/details",
					"host": [
						"localhost"
					],
					"port": "8000",
					"path": [
						"user",
						"details"
					]
				}
			},
			"response": []
		}
	]
}